…
## Recipe

### Deal with high cardinality categoricals

``` r
model_recipe <- recipe(event_label ~  email_domain, data=fraud_train) %>%
  step_unknown(all_nominal_predictors()) 

count_ed <- bake (model_recipe %>% prep(), fraud_train) %>% 
  count(email_domain, sort=TRUE)
count_ed
```

    ## # A tibble: 6,829 × 2
    ##    email_domain              n
    ##    <fct>                 <int>
    ##  1 nan                      60
    ##  2 gutierrez-ryan.com       50
    ##  3 cochran.biz              48
    ##  4 lane.info                48
    ##  5 williams-sullivan.com    48
    ##  6 foster-marshall.org      47
    ##  7 freeman-adams.com        47
    ##  8 howard-holt.org          47
    ##  9 johnson-munoz.com        47
    ## 10 luna-walker.com          47
    ## # … with 6,819 more rows

``` r
model_recipe <- recipe(event_label ~  billing_postal, data=fraud_train) %>%
  step_unknown(all_nominal_predictors()) %>%
  step_integer(all_nominal_predictors())

bake (model_recipe %>% prep(), fraud_train) %>% 
  count(billing_postal, sort=TRUE)
```

    ## # A tibble: 10,747 × 2
    ##    billing_postal     n
    ##             <int> <int>
    ##  1          11065    80
    ##  2           1665    33
    ##  3          10583    33
    ##  4           7135    31
    ##  5           1075    30
    ##  6           3668    30
    ##  7           5314    30
    ##  8           7336    30
    ##  9           9414    30
    ## 10           9428    30
    ## # … with 10,737 more rows
…
## Bake

``` r
bake(fraud_recipe %>% prep(), fraud_train %>% sample_n(1000))
```

    ## # A tibble: 1,000 × 77
    ##    account_age…¹ trans…² trans…³ card_…⁴ event…⁵ billi…⁶ billi…⁷ billi…⁸ billi…⁹
    ##            <dbl>   <dbl>   <dbl>   <int> <fct>     <int>   <int>   <int>   <int>
    ##  1          2982    1960      51       6 legit         0       0       0       0
    ##  2          4342    3713      57      38 legit         0       0       0       0
    ##  3          3151    1998      57      43 legit         0       0       0       0
    ##  4          4811    2566      32      36 legit         0       0       0       0
    ##  5          5402    2209      49       6 fraud         0       0       0       0
    ##  6          4823    2099      63      15 legit         0       0       0       0
    ##  7          4050    1767      52      38 legit         0       0       0       0
    ##  8          3682    2396      48      26 legit         0       0       0       0
    ##  9          4470    3331      51      52 legit         0       0       0       0
    ## 10          3605    2634      52      42 legit         1       0       0       0
    ## # … with 990 more rows, 68 more variables: billing_state_Georgia <int>,
    ## #   billing_state_Illinois <int>, billing_state_Indiana <int>,
    ## #   billing_state_Kentucky <int>, billing_state_Louisiana <int>,
    ## #   billing_state_Maine <int>, billing_state_Michigan <int>,
    ## #   billing_state_Minnesota <int>, billing_state_Montana <int>,
    ## #   billing_state_New.Hampshire <int>, billing_state_New.Jersey <int>,
    ## #   billing_state_New.Mexico <int>, billing_state_New.York <int>, …
…
``` r
logistic_workflow %>%
 pull_workflow_fit() %>%
  tidy() %>%
  mutate_if(is.numeric,round,2)
```

    ## Warning: `pull_workflow_fit()` was deprecated in workflows 0.2.3.
    ## ℹ Please use `extract_fit_parsnip()` instead.

    ## # A tibble: 135 × 5
    ##    term                     estimate std.error statistic p.value
    ##    <chr>                       <dbl>     <dbl>     <dbl>   <dbl>
    ##  1 (Intercept)                -38.2    2453.       -0.02    0.99
    ##  2 account_age_days             0         0       -54.8     0   
    ##  3 transaction_amt              0         0        -9.55    0   
    ##  4 transaction_adj_amt          0.18      0        75.0     0   
    ##  5 card_bin_freq                0.02      0        15.3     0   
    ##  6 billing_state_Alaska         0.6       0.36      1.67    0.09
    ##  7 billing_state_Arizona        2.82      1.2       2.36    0.02
    ##  8 billing_state_Arkansas       1.09      0.28      3.83    0   
    ##  9 billing_state_California     0.16      0.13      1.29    0.2 
    ## 10 billing_state_Colorado       1.75      0.34      5.18    0   
    ## # … with 125 more rows
…
